{
  "src": ".",
  "language": "typescript",
  "schema": "../db/data/schema.graphql",
  "eagerEsModules": true,
  "customScalars": {
    "ID": "ID",
    "UUID": "UUID",
    "Datetime": "Datetime"
  },
  "exclude": [
    "dist",
    "build",
    "**/node_modules/**",
    "**/__generated__/**",
    "**/*.js",
    "**/*.old.ts",
    "**/*.old/*",
    "**/.*.old/**",
    "**/*.old/**"
  ]
}
